[
  {
    "featureId": "feature1",
    "appId": "vn.miniapp_1",
    "url": "",
    "title": "Features 1",
    "version": "0.0.1",
    "process": 60,
    "icon": "http://10.40.116.98:2001/images/611da7f5-b597-4849-9599-43de13bd6e6d.png",
    "params": {
      "title": "Features 1 title",
      "des": "Features 1 des"
    }
  },
  {
    "featureId": "feature2",
    "appId": "vn.miniapp_2",
    "url": "",
    "title": "Features 2 a",
    "version": "0.0.1",
    "process": 60,
    "icon": "http://10.40.116.98:2001/images/611da7f5-b597-4849-9599-43de13bd6e6d.png",
    "params": {
      "title": "Features 2 title",
      "des": "Features 2 des"
    }
  },
  {
    "featureId": "feature3",
    "appId": "vn.miniapp_3",
    "url": "",
    "title": "Features 3",
    "version": "0.0.1",
    "process": 60,
    "icon": "http://10.40.116.98:2001/images/611da7f5-b597-4849-9599-43de13bd6e6d.png",
    "params": {
      "title": "Features 3 title",
      "des": "Features 3 des"
    }
  }
]
